%YAML 1.1
%TAG !u! tag:unity3d.com,2011:
--- !u!114 &11400000
MonoBehaviour:
  m_ObjectHideFlags: 0
  m_CorrespondingSourceObject: {fileID: 0}
  m_PrefabInstance: {fileID: 0}
  m_PrefabAsset: {fileID: 0}
  m_GameObject: {fileID: 0}
  m_Enabled: 1
  m_EditorHideFlags: 0
  m_Script: {fileID: 11500000, guid: 0744ba6ce0254034bb7294a1ca864727, type: 3}
  m_Name: RotationStateInfo_Player
  m_EditorClassIdentifier: 
  RotationSpeed: 3
  RotationAnimationSpeed: 0.25
  IsFacingForward: 1
